iter	Passed	Remaining
0	15	15666
1	29	14679
2	62	20824
3	95	23765
4	123	24600
5	131	21859
6	151	21507
7	163	20330
8	184	20294
9	212	21042
10	225	20250
11	246	20273
12	253	19257
13	269	18993
14	280	18394
15	289	17807
16	300	17389
17	311	17009
18	343	17760
19	372	18247
20	384	17937
21	393	17499
22	405	17206
23	413	16835
24	428	16710
25	439	16482
26	448	16161
27	465	16154
28	494	16568
29	506	16379
30	526	16472
31	537	16246
32	549	16116
33	557	15829
34	564	15567
35	592	15870
36	618	16096
37	625	15844
38	635	15659
39	642	15427
40	671	15712
41	704	16069
42	712	15848
43	745	16192
44	754	16006
45	762	15811
46	800	16232
47	830	16466
48	837	16255
49	868	16498
50	881	16395
51	906	16518
52	931	16651
53	964	16901
54	974	16751
55	1005	16955
56	1013	16764
57	1045	16974
58	1076	17169
59	1084	16993
60	1119	17231
61	1161	17575
62	1174	17474
63	1203	17593
64	1236	17789
65	1270	17980
66	1281	17842
67	1300	17821
68	1326	17904
69	1337	17774
70	1352	17697
71	1387	17878
72	1396	17734
73	1429	17882
74	1458	17984
75	1482	18022
76	1489	17854
77	1519	17956
78	1542	17980
79	1581	18188
80	1613	18308
81	1648	18457
82	1656	18296
83	1663	18135
84	1670	17982
85	1677	17832
86	1708	17927
87	1715	17781
88	1745	17871
89	1773	17934
90	1795	17932
91	1823	17996
92	1863	18178
93	1896	18276
94	1923	18323
95	1953	18395
96	1985	18484
97	2013	18528
98	2046	18628
99	2078	18710
100	2116	18842
101	2150	18932
102	2178	18971
103	2205	19003
104	2233	19038
105	2241	18901
